{
  "development": {
    "username": "mongo",
    "password": "root",
    "host": "127.0.0.1",
    "port": 27017,
    "database": "migrations"
  },
  "production": {
    "username": "mongo",
    "password": "root",
    "host": "127.0.0.1",
    "port": 27017,
    "database": "migrations"
  }
}
